80 00 00 08 00 00 00 00 00 00 00 00 00 00 00 00 00 00 00 00 00 00 00 00 00 00 00 00 00 00 00 00 
00 00 00 00 00 00 00 00 00 00 00 00 00 00 00 00 00 00 00 00 00 00 00 00 00 00 00 00 00 00 00 00 
00 00 00 00 00 00 00 00 00 00 00 00 00 00 00 00 00 00 00 00 00 00 00 00 00 00 00 00 00 00 00 00 
00 00 00 00 00 00 00 00 00 00 00 00 00 00 00 00 00 00 00 00 00 00 00 00 00 00 00 00 00 00 00 00 
00 00 00 00 00 00 00 00 00 00 00 00 00 00 00 00 00 00 00 00 00 00 00 00 00 00 00 00 00 00 00 00 
00 00 00 00 00 00 00 00 00 00 00 00 00 00 00 00 00 00 00 00 00 00 00 00 00 00 00 00 00 00 00 00 
00 00 00 00 00 00 00 00 00 00 00 00 00 00 00 00 00 00 00 00 00 00 00 00 00 00 00 00 00 00 00 00 
00 00 00 00 00 00 00 00 00 00 00 00 00 00 00 00 00 00 00 00 00 00 00 00 00 00 00 00 00 00 00 00 
00 00 00 00 00 00 00 00 00 00 00 00 00 00 00 00 00 00 00 00 00 00 00 00 00 00 00 00 00 00 00 00 
00 00 00 00 00 00 00 00 00 00 00 00 00 00 00 00 00 00 00 00 00 00 00 00 00 00 00 00 00 00 00 00 
00 00 00 00 00 00 00 00 00 00 00 00 00 00 00 00 00 00 00 00 00 00 00 00 00 00 00 00 00 00 00 00 
00 00 00 00 00 00 00 00 00 00 00 00 00 00 00 00 00 00 00 00 00 00 00 00 00 00 00 00 00 00 00 00 
A2 01 00 08 00 00 00 00 00 00 00 00 00 00 00 00 00 00 00 00 00 00 00 00 00 00 00 00 00 00 00 00 
00 00 00 00 00 00 00 00 00 00 00 00 00 00 00 00 00 00 00 00 00 00 00 00 00 00 00 00 00 00 00 00 
00 00 00 00 00 00 00 00 00 00 00 00 00 00 00 00 00 00 00 00 00 00 00 00 00 00 00 00 00 00 00 00 
00 00 00 00 00 00 00 00 00 00 00 00 00 00 00 00 00 00 00 00 00 00 00 00 00 00 00 00 00 00 00 00 
00 80 1D 3C 40 1D BD 27 11 11 06 3C 11 11 C6 34 11 11 07 3C 11 11 E7 34 14 01 00 0C 00 00 00 00 
48 02 00 0C 00 00 00 00 11 11 06 34 11 11 07 34 14 01 00 0C 00 00 00 00 0B 02 00 0C 00 00 00 00 
22 22 06 3C 22 22 C6 34 22 22 07 3C 22 22 E7 34 14 01 00 0C 00 00 00 00 C0 02 00 0C 00 00 00 00 
22 22 06 34 22 22 07 34 14 01 00 0C 00 00 00 00 83 02 00 0C 00 00 00 00 33 33 06 3C 33 33 C6 34 
33 33 07 3C 33 33 E7 34 14 01 00 0C 00 00 00 00 38 03 00 0C 00 00 00 00 33 33 06 34 33 33 07 34 
14 01 00 0C 00 00 00 00 FB 02 00 0C 00 00 00 00 44 44 06 3C 44 44 C6 34 44 44 07 3C 44 44 E7 34 
14 01 00 0C 00 00 00 00 B0 03 00 0C 00 00 00 00 44 44 06 34 44 44 07 34 14 01 00 0C 00 00 00 00 
73 03 00 0C 00 00 00 00 55 55 06 3C 55 55 C6 34 55 55 07 3C 55 55 E7 34 14 01 00 0C 00 00 00 00 
28 04 00 0C 00 00 00 00 55 55 06 34 55 55 07 34 14 01 00 0C 00 00 00 00 EB 03 00 0C 00 00 00 00 
66 66 06 3C 66 66 C6 34 66 66 07 3C 66 66 E7 34 14 01 00 0C 00 00 00 00 A0 04 00 0C 00 00 00 00 
66 66 06 34 66 66 07 34 14 01 00 0C 00 00 00 00 63 04 00 0C 00 00 00 00 77 77 06 3C 77 77 C6 34 
77 77 07 3C 77 77 E7 34 14 01 00 0C 00 00 00 00 18 05 00 0C 00 00 00 00 77 77 06 34 77 77 07 34 
14 01 00 0C 00 00 00 00 DB 04 00 0C 00 00 00 00 88 88 06 3C 88 88 C6 34 88 88 07 3C 88 88 E7 34 
14 01 00 0C 00 00 00 00 90 05 00 0C 00 00 00 00 88 88 06 34 88 88 07 34 14 01 00 0C 00 00 00 00 
53 05 00 0C 00 00 00 00 58 01 00 0C 00 00 00 00 00 80 18 3C 00 18 18 27 00 B8 19 3C 30 00 2F 8F 
00 00 0F AF 55 00 2F 83 04 00 0F AF 59 00 2F 83 08 00 0F AF F0 00 0F 34 59 00 2F A3 30 00 27 AF 
60 00 0F 34 55 00 2F A3 30 00 26 AF 30 00 0F 34 55 00 2F A3 30 00 25 AF 00 00 0F 34 55 00 2F A3 
30 00 24 AF 40 00 0F 34 55 00 2F A3 00 00 0F 8F 30 00 2F AF 04 00 0F 8F 55 00 2F A3 08 00 0F 8F 
59 00 2F A3 08 00 E0 03 00 00 00 00 00 00 00 00 00 80 18 3C 00 18 18 27 00 B8 19 3C 30 00 2F 8F 
00 00 0F AF 55 00 2F 83 04 00 0F AF 59 00 2F 83 08 00 0F AF F0 00 0F 34 59 00 2F A3 30 00 27 AF 
60 00 0F 34 55 00 2F A3 30 00 26 AF 30 00 0F 34 55 00 2F A3 30 00 25 AF 00 00 0F 34 55 00 2F A3 
88 88 04 3C 88 88 84 34 30 00 24 AF 40 00 0F 34 55 00 2F A3 00 00 0F 8F 30 00 2F AF 04 00 0F 8F 
55 00 2F A3 08 00 0F 8F 59 00 2F A3 08 00 E0 03 00 00 00 00 00 00 00 00 00 80 18 3C 00 18 18 27 
00 B8 19 3C 30 00 2F 8F 00 00 0F AF 55 00 2F 83 04 00 0F AF 59 00 2F 83 08 00 0F AF F0 00 0F 34 
59 00 2F A3 30 00 27 AF 60 00 0F 34 55 00 2F A3 30 00 26 AF 30 00 0F 34 55 00 2F A3 30 00 25 AF 
00 00 0F 34 55 00 2F A3 52 43 04 3C 54 53 84 34 30 00 24 AF 40 00 0F 34 55 00 2F A3 00 00 0F 8F 
30 00 2F AF 04 00 0F 8F 55 00 2F A3 08 00 0F 8F 59 00 2F A3 08 00 E0 03 00 00 00 00 00 00 00 00 
00 B8 04 3C 00 00 05 34 90 00 85 A0 FF BF 08 3C FF FF 08 35 00 00 09 81 0F 00 00 00 00 00 00 00 
00 00 00 00 00 00 00 00 00 00 00 00 00 00 00 00 00 00 00 00 00 00 00 00 00 00 00 00 00 00 00 00 
00 00 00 00 00 00 00 00 00 00 00 00 00 00 00 00 00 00 00 00 00 00 00 00 00 00 00 00 00 00 00 00 
00 00 00 00 00 00 00 00 00 00 00 00 00 00 00 00 00 00 00 00 00 00 00 00 00 00 00 00 00 00 00 00 
00 00 00 00 00 00 00 00 00 00 00 00 00 00 00 00 00 00 00 00 00 00 00 00 00 00 00 00 00 00 00 00 
00 00 00 00 00 00 00 00 00 00 00 00 00 00 00 00 00 00 00 00 00 00 00 00 00 00 00 00 00 00 00 00 
00 00 00 00 00 00 00 00 00 00 00 00 00 00 00 00 00 00 00 00 00 00 00 00 00 00 00 00 00 00 00 00 
00 00 00 00 00 00 00 00 00 00 00 00 00 00 00 00 00 00 00 00 00 00 00 24 00 00 00 00 00 00 00 00 
00 00 00 00 00 00 00 00 00 00 00 00 00 00 00 00 00 00 00 00 00 00 00 00 00 00 00 00 08 00 E0 03 
00 00 00 00 00 00 00 00 00 80 1A 3C 40 18 5A 27 00 00 40 AF 20 00 48 AF 24 00 49 AF 28 00 4A AF 
2C 00 4B AF 30 00 4C AF 34 00 4D AF 38 00 4E AF 3C 00 4F AF 60 00 58 AF 64 00 59 AF 10 00 44 AF 
14 00 45 AF 18 00 46 AF 1C 00 47 AF 40 00 50 AF 44 00 51 AF 48 00 52 AF 4C 00 53 AF 50 00 54 AF 
54 00 55 AF 58 00 56 AF 5C 00 57 AF 08 00 42 AF 0C 00 43 AF 04 00 41 AF 7C 00 5F AF 70 00 5C AF 
78 00 5E AF 74 00 5D AF 00 60 08 40 80 00 48 AF 10 40 00 00 8C 00 48 AF 12 48 00 00 90 00 49 AF 
00 68 11 40 84 00 51 AF 7C 00 31 32 82 88 11 00 00 00 00 00 00 40 10 40 94 00 50 AF 00 70 11 40 
88 00 51 AF 34 12 06 3C 78 56 C6 34 34 12 07 3C 78 56 E7 34 14 01 00 0C 00 00 00 00 65 87 06 3C 
21 43 C6 34 65 87 07 3C 21 43 E7 34 14 01 00 0C 00 00 00 00 00 80 1A 3C 40 18 5A 27 80 00 48 8F 
00 60 88 40 8C 00 48 8F 11 00 00 01 90 00 49 8F 13 00 20 01 20 00 48 8F 24 00 49 8F 28 00 4A 8F 
2C 00 4B 8F 30 00 4C 8F 34 00 4D 8F 38 00 4E 8F 3C 00 4F 8F 60 00 58 8F 64 00 59 8F 10 00 44 8F 
14 00 45 8F 18 00 46 8F 1C 00 47 8F 40 00 50 8F 44 00 51 8F 48 00 52 8F 4C 00 53 8F 50 00 54 8F 
54 00 55 8F 58 00 56 8F 5C 00 57 8F 08 00 42 8F 0C 00 43 8F 04 00 41 8F 7C 00 5F 8F 70 00 5C 8F 
78 00 5E 8F 74 00 5D 8F 00 00 00 00 00 00 00 00 00 00 00 00 00 00 00 00 18 00 00 42 00 00 00 00 
00 00 00 00 00 00 00 00 00 00 00 00 FC FF BD 23 00 00 BF AF 00 80 06 3C 00 80 C6 34 00 80 07 3C 
00 80 E7 34 14 01 00 0C 00 00 00 00 00 80 08 3C 00 80 08 35 00 80 09 3C 00 82 29 35 00 00 08 A5 
02 00 08 21 FD FF 09 15 00 00 00 00 00 80 08 3C 00 80 08 35 00 80 09 3C 00 82 29 35 00 00 06 85 
FF FF C6 30 FF FF 07 31 05 00 C7 10 00 00 00 00 02 00 04 34 25 28 08 01 F4 00 00 0C 00 00 00 00 
02 00 08 21 F5 FF 09 15 00 00 00 00 00 80 08 3C 00 82 08 35 00 80 09 3C 00 84 29 35 FE FF 29 21 
00 00 29 A5 FD FF 09 15 00 00 00 00 00 80 08 3C 00 82 08 35 00 80 09 3C 00 84 29 35 FE FF 29 21 
00 00 26 85 FF FF C6 30 FF FF 27 31 05 00 C7 10 00 00 00 00 02 00 04 34 25 28 29 01 F4 00 00 0C 
00 00 00 00 F5 FF 09 15 00 00 00 00 00 00 BF 8F 04 00 BD 23 08 00 E0 03 00 00 00 00 00 00 00 00 
FC FF BD 23 00 00 BF AF 00 80 06 3C 00 90 C6 34 00 80 07 3C 00 90 E7 34 14 01 00 0C 00 00 00 00 
00 80 08 3C 00 90 08 35 00 80 09 3C 00 92 29 35 00 00 08 AD 04 00 08 21 FD FF 09 15 00 00 00 00 
00 80 08 3C 00 90 08 35 00 80 09 3C 00 92 29 35 00 00 06 8D 25 38 00 01 05 00 C7 10 00 00 00 00 
02 00 04 34 25 28 08 01 F4 00 00 0C 00 00 00 00 04 00 08 21 F6 FF 09 15 00 00 00 00 00 80 08 3C 
00 92 08 35 00 80 09 3C 00 94 29 35 FC FF 29 21 00 00 29 AD FD FF 09 15 00 00 00 00 00 80 08 3C 
00 92 08 35 00 80 09 3C 00 94 29 35 FC FF 29 21 00 00 26 8D 25 38 20 01 05 00 C7 10 00 00 00 00 
02 00 04 34 25 28 29 01 F4 00 00 0C 00 00 00 00 F6 FF 09 15 00 00 00 00 00 00 BF 8F 04 00 BD 23 
08 00 E0 03 00 00 00 00 00 00 00 00 FC FF BD 23 00 00 BF AF 10 80 06 3C 00 80 C6 34 10 80 07 3C 
00 80 E7 34 14 01 00 0C 00 00 00 00 10 80 08 3C 00 80 08 35 10 80 09 3C 00 82 29 35 00 00 08 A5 
02 00 08 21 FD FF 09 15 00 00 00 00 10 80 08 3C 00 80 08 35 10 80 09 3C 00 82 29 35 00 00 06 85 
FF FF C6 30 FF FF 07 31 05 00 C7 10 00 00 00 00 02 00 04 34 25 28 08 01 F4 00 00 0C 00 00 00 00 
02 00 08 21 F5 FF 09 15 00 00 00 00 10 80 08 3C 00 82 08 35 10 80 09 3C 00 84 29 35 FE FF 29 21 
00 00 29 A5 FD FF 09 15 00 00 00 00 10 80 08 3C 00 82 08 35 10 80 09 3C 00 84 29 35 FE FF 29 21 
00 00 26 85 FF FF C6 30 FF FF 27 31 05 00 C7 10 00 00 00 00 02 00 04 34 25 28 29 01 F4 00 00 0C 
00 00 00 00 F5 FF 09 15 00 00 00 00 00 00 BF 8F 04 00 BD 23 08 00 E0 03 00 00 00 00 00 00 00 00 
FC FF BD 23 00 00 BF AF 10 80 06 3C 00 90 C6 34 10 80 07 3C 00 90 E7 34 14 01 00 0C 00 00 00 00 
10 80 08 3C 00 90 08 35 10 80 09 3C 00 92 29 35 00 00 08 AD 04 00 08 21 FD FF 09 15 00 00 00 00 
10 80 08 3C 00 90 08 35 10 80 09 3C 00 92 29 35 00 00 06 8D 25 38 00 01 05 00 C7 10 00 00 00 00 
02 00 04 34 25 28 08 01 F4 00 00 0C 00 00 00 00 04 00 08 21 F6 FF 09 15 00 00 00 00 10 80 08 3C 
00 92 08 35 10 80 09 3C 00 94 29 35 FC FF 29 21 00 00 29 AD FD FF 09 15 00 00 00 00 10 80 08 3C 
00 92 08 35 10 80 09 3C 00 94 29 35 FC FF 29 21 00 00 26 8D 25 38 20 01 05 00 C7 10 00 00 00 00 
02 00 04 34 25 28 29 01 F4 00 00 0C 00 00 00 00 F6 FF 09 15 00 00 00 00 00 00 BF 8F 04 00 BD 23 
08 00 E0 03 00 00 00 00 00 00 00 00 FC FF BD 23 00 00 BF AF 20 80 06 3C 00 80 C6 34 20 80 07 3C 
00 80 E7 34 14 01 00 0C 00 00 00 00 20 80 08 3C 00 80 08 35 20 80 09 3C 00 82 29 35 00 00 08 A5 
02 00 08 21 FD FF 09 15 00 00 00 00 20 80 08 3C 00 80 08 35 20 80 09 3C 00 82 29 35 00 00 06 85 
FF FF C6 30 FF FF 07 31 05 00 C7 10 00 00 00 00 02 00 04 34 25 28 08 01 F4 00 00 0C 00 00 00 00 
02 00 08 21 F5 FF 09 15 00 00 00 00 20 80 08 3C 00 82 08 35 20 80 09 3C 00 84 29 35 FE FF 29 21 
00 00 29 A5 FD FF 09 15 00 00 00 00 20 80 08 3C 00 82 08 35 20 80 09 3C 00 84 29 35 FE FF 29 21 
00 00 26 85 FF FF C6 30 FF FF 27 31 05 00 C7 10 00 00 00 00 02 00 04 34 25 28 29 01 F4 00 00 0C 
00 00 00 00 F5 FF 09 15 00 00 00 00 00 00 BF 8F 04 00 BD 23 08 00 E0 03 00 00 00 00 00 00 00 00 
FC FF BD 23 00 00 BF AF 20 80 06 3C 00 90 C6 34 20 80 07 3C 00 90 E7 34 14 01 00 0C 00 00 00 00 
20 80 08 3C 00 90 08 35 20 80 09 3C 00 92 29 35 00 00 08 AD 04 00 08 21 FD FF 09 15 00 00 00 00 
20 80 08 3C 00 90 08 35 20 80 09 3C 00 92 29 35 00 00 06 8D 25 38 00 01 05 00 C7 10 00 00 00 00 
02 00 04 34 25 28 08 01 F4 00 00 0C 00 00 00 00 04 00 08 21 F6 FF 09 15 00 00 00 00 20 80 08 3C 
00 92 08 35 20 80 09 3C 00 94 29 35 FC FF 29 21 00 00 29 AD FD FF 09 15 00 00 00 00 20 80 08 3C 
00 92 08 35 20 80 09 3C 00 94 29 35 FC FF 29 21 00 00 26 8D 25 38 20 01 05 00 C7 10 00 00 00 00 
02 00 04 34 25 28 29 01 F4 00 00 0C 00 00 00 00 F6 FF 09 15 00 00 00 00 00 00 BF 8F 04 00 BD 23 
08 00 E0 03 00 00 00 00 00 00 00 00 FC FF BD 23 00 00 BF AF 30 80 06 3C 00 80 C6 34 30 80 07 3C 
00 80 E7 34 14 01 00 0C 00 00 00 00 30 80 08 3C 00 80 08 35 30 80 09 3C 00 82 29 35 00 00 08 A5 
02 00 08 21 FD FF 09 15 00 00 00 00 30 80 08 3C 00 80 08 35 30 80 09 3C 00 82 29 35 00 00 06 85 
FF FF C6 30 FF FF 07 31 05 00 C7 10 00 00 00 00 02 00 04 34 25 28 08 01 F4 00 00 0C 00 00 00 00 
02 00 08 21 F5 FF 09 15 00 00 00 00 30 80 08 3C 00 82 08 35 30 80 09 3C 00 84 29 35 FE FF 29 21 
00 00 29 A5 FD FF 09 15 00 00 00 00 30 80 08 3C 00 82 08 35 30 80 09 3C 00 84 29 35 FE FF 29 21 
00 00 26 85 FF FF C6 30 FF FF 27 31 05 00 C7 10 00 00 00 00 02 00 04 34 25 28 29 01 F4 00 00 0C 
00 00 00 00 F5 FF 09 15 00 00 00 00 00 00 BF 8F 04 00 BD 23 08 00 E0 03 00 00 00 00 00 00 00 00 
FC FF BD 23 00 00 BF AF 30 80 06 3C 00 90 C6 34 30 80 07 3C 00 90 E7 34 14 01 00 0C 00 00 00 00 
30 80 08 3C 00 90 08 35 30 80 09 3C 00 92 29 35 00 00 08 AD 04 00 08 21 FD FF 09 15 00 00 00 00 
30 80 08 3C 00 90 08 35 30 80 09 3C 00 92 29 35 00 00 06 8D 25 38 00 01 05 00 C7 10 00 00 00 00 
02 00 04 34 25 28 08 01 F4 00 00 0C 00 00 00 00 04 00 08 21 F6 FF 09 15 00 00 00 00 30 80 08 3C 
00 92 08 35 30 80 09 3C 00 94 29 35 FC FF 29 21 00 00 29 AD FD FF 09 15 00 00 00 00 30 80 08 3C 
00 92 08 35 30 80 09 3C 00 94 29 35 FC FF 29 21 00 00 26 8D 25 38 20 01 05 00 C7 10 00 00 00 00 
02 00 04 34 25 28 29 01 F4 00 00 0C 00 00 00 00 F6 FF 09 15 00 00 00 00 00 00 BF 8F 04 00 BD 23 
08 00 E0 03 00 00 00 00 00 00 00 00 FC FF BD 23 00 00 BF AF 00 80 06 3C 00 80 C6 34 00 80 07 3C 
00 80 E7 34 14 01 00 0C 00 00 00 00 40 80 08 3C 00 80 08 35 40 80 09 3C 00 82 29 35 00 00 08 A5 
02 00 08 21 FD FF 09 15 00 00 00 00 40 80 08 3C 00 80 08 35 40 80 09 3C 00 82 29 35 00 00 06 85 
FF FF C6 30 FF FF 07 31 05 00 C7 10 00 00 00 00 02 00 04 34 25 28 08 01 F4 00 00 0C 00 00 00 00 
02 00 08 21 F5 FF 09 15 00 00 00 00 40 80 08 3C 00 82 08 35 40 80 09 3C 00 84 29 35 FE FF 29 21 
00 00 29 A5 FD FF 09 15 00 00 00 00 40 80 08 3C 00 82 08 35 40 80 09 3C 00 84 29 35 FE FF 29 21 
00 00 26 85 FF FF C6 30 FF FF 27 31 05 00 C7 10 00 00 00 00 02 00 04 34 25 28 29 01 F4 00 00 0C 
00 00 00 00 F5 FF 09 15 00 00 00 00 00 00 BF 8F 04 00 BD 23 08 00 E0 03 00 00 00 00 00 00 00 00 
FC FF BD 23 00 00 BF AF 40 80 06 3C 00 90 C6 34 40 80 07 3C 00 90 E7 34 14 01 00 0C 00 00 00 00 
40 80 08 3C 00 90 08 35 40 80 09 3C 00 92 29 35 00 00 08 AD 04 00 08 21 FD FF 09 15 00 00 00 00 
40 80 08 3C 00 90 08 35 40 80 09 3C 00 92 29 35 00 00 06 8D 25 38 00 01 05 00 C7 10 00 00 00 00 
02 00 04 34 25 28 08 01 F4 00 00 0C 00 00 00 00 04 00 08 21 F6 FF 09 15 00 00 00 00 40 80 08 3C 
00 92 08 35 40 80 09 3C 00 94 29 35 FC FF 29 21 00 00 29 AD FD FF 09 15 00 00 00 00 40 80 08 3C 
00 92 08 35 40 80 09 3C 00 94 29 35 FC FF 29 21 00 00 26 8D 25 38 20 01 05 00 C7 10 00 00 00 00 
02 00 04 34 25 28 29 01 F4 00 00 0C 00 00 00 00 F6 FF 09 15 00 00 00 00 00 00 BF 8F 04 00 BD 23 
08 00 E0 03 00 00 00 00 00 00 00 00 FC FF BD 23 00 00 BF AF 50 80 06 3C 00 80 C6 34 50 80 07 3C 
00 80 E7 34 14 01 00 0C 00 00 00 00 50 80 08 3C 00 80 08 35 50 80 09 3C 00 82 29 35 00 00 08 A5 
02 00 08 21 FD FF 09 15 00 00 00 00 50 80 08 3C 00 80 08 35 50 80 09 3C 00 82 29 35 00 00 06 85 
FF FF C6 30 FF FF 07 31 05 00 C7 10 00 00 00 00 02 00 04 34 25 28 08 01 F4 00 00 0C 00 00 00 00 
02 00 08 21 F5 FF 09 15 00 00 00 00 50 80 08 3C 00 82 08 35 50 80 09 3C 00 84 29 35 FE FF 29 21 
00 00 29 A5 FD FF 09 15 00 00 00 00 50 80 08 3C 00 82 08 35 50 80 09 3C 00 84 29 35 FE FF 29 21 
00 00 26 85 FF FF C6 30 FF FF 27 31 05 00 C7 10 00 00 00 00 02 00 04 34 25 28 29 01 F4 00 00 0C 
00 00 00 00 F5 FF 09 15 00 00 00 00 00 00 BF 8F 04 00 BD 23 08 00 E0 03 00 00 00 00 00 00 00 00 
FC FF BD 23 00 00 BF AF 50 80 06 3C 00 90 C6 34 50 80 07 3C 00 90 E7 34 14 01 00 0C 00 00 00 00 
50 80 08 3C 00 90 08 35 50 80 09 3C 00 92 29 35 00 00 08 AD 04 00 08 21 FD FF 09 15 00 00 00 00 
50 80 08 3C 00 90 08 35 50 80 09 3C 00 92 29 35 00 00 06 8D 25 38 00 01 05 00 C7 10 00 00 00 00 
02 00 04 34 25 28 08 01 F4 00 00 0C 00 00 00 00 04 00 08 21 F6 FF 09 15 00 00 00 00 50 80 08 3C 
00 92 08 35 50 80 09 3C 00 94 29 35 FC FF 29 21 00 00 29 AD FD FF 09 15 00 00 00 00 50 80 08 3C 
00 92 08 35 50 80 09 3C 00 94 29 35 FC FF 29 21 00 00 26 8D 25 38 20 01 05 00 C7 10 00 00 00 00 
02 00 04 34 25 28 29 01 F4 00 00 0C 00 00 00 00 F6 FF 09 15 00 00 00 00 00 00 BF 8F 04 00 BD 23 
08 00 E0 03 00 00 00 00 00 00 00 00 FC FF BD 23 00 00 BF AF 60 80 06 3C 00 80 C6 34 60 80 07 3C 
00 80 E7 34 14 01 00 0C 00 00 00 00 60 80 08 3C 00 80 08 35 60 80 09 3C 00 82 29 35 00 00 08 A5 
02 00 08 21 FD FF 09 15 00 00 00 00 60 80 08 3C 00 80 08 35 60 80 09 3C 00 82 29 35 00 00 06 85 
FF FF C6 30 FF FF 07 31 05 00 C7 10 00 00 00 00 02 00 04 34 25 28 08 01 F4 00 00 0C 00 00 00 00 
02 00 08 21 F5 FF 09 15 00 00 00 00 60 80 08 3C 00 82 08 35 60 80 09 3C 00 84 29 35 FE FF 29 21 
00 00 29 A5 FD FF 09 15 00 00 00 00 60 80 08 3C 00 82 08 35 60 80 09 3C 00 84 29 35 FE FF 29 21 
00 00 26 85 FF FF C6 30 FF FF 27 31 05 00 C7 10 00 00 00 00 02 00 04 34 25 28 29 01 F4 00 00 0C 
00 00 00 00 F5 FF 09 15 00 00 00 00 00 00 BF 8F 04 00 BD 23 08 00 E0 03 00 00 00 00 00 00 00 00 
FC FF BD 23 00 00 BF AF 60 80 06 3C 00 90 C6 34 60 80 07 3C 00 90 E7 34 14 01 00 0C 00 00 00 00 
60 80 08 3C 00 90 08 35 60 80 09 3C 00 92 29 35 00 00 08 AD 04 00 08 21 FD FF 09 15 00 00 00 00 
60 80 08 3C 00 90 08 35 60 80 09 3C 00 92 29 35 00 00 06 8D 25 38 00 01 05 00 C7 10 00 00 00 00 
02 00 04 34 25 28 08 01 F4 00 00 0C 00 00 00 00 04 00 08 21 F6 FF 09 15 00 00 00 00 60 80 08 3C 
00 92 08 35 60 80 09 3C 00 94 29 35 FC FF 29 21 00 00 29 AD FD FF 09 15 00 00 00 00 60 80 08 3C 
00 92 08 35 60 80 09 3C 00 94 29 35 FC FF 29 21 00 00 26 8D 25 38 20 01 05 00 C7 10 00 00 00 00 
02 00 04 34 25 28 29 01 F4 00 00 0C 00 00 00 00 F6 FF 09 15 00 00 00 00 00 00 BF 8F 04 00 BD 23 
08 00 E0 03 00 00 00 00 00 00 00 00 FC FF BD 23 00 00 BF AF 70 80 06 3C 00 80 C6 34 70 80 07 3C 
00 80 E7 34 14 01 00 0C 00 00 00 00 70 80 08 3C 00 80 08 35 70 80 09 3C 00 82 29 35 00 00 08 A5 
02 00 08 21 FD FF 09 15 00 00 00 00 70 80 08 3C 00 80 08 35 70 80 09 3C 00 82 29 35 00 00 06 85 
FF FF C6 30 FF FF 07 31 05 00 C7 10 00 00 00 00 02 00 04 34 25 28 08 01 F4 00 00 0C 00 00 00 00 
02 00 08 21 F5 FF 09 15 00 00 00 00 70 80 08 3C 00 82 08 35 70 80 09 3C 00 84 29 35 FE FF 29 21 
00 00 29 A5 FD FF 09 15 00 00 00 00 70 80 08 3C 00 82 08 35 70 80 09 3C 00 84 29 35 FE FF 29 21 
00 00 26 85 FF FF C6 30 FF FF 27 31 05 00 C7 10 00 00 00 00 02 00 04 34 25 28 29 01 F4 00 00 0C 
00 00 00 00 F5 FF 09 15 00 00 00 00 00 00 BF 8F 04 00 BD 23 08 00 E0 03 00 00 00 00 00 00 00 00 
FC FF BD 23 00 00 BF AF 70 80 06 3C 00 90 C6 34 70 80 07 3C 00 90 E7 34 14 01 00 0C 00 00 00 00 
70 80 08 3C 00 90 08 35 70 80 09 3C 00 92 29 35 00 00 08 AD 04 00 08 21 FD FF 09 15 00 00 00 00 
70 80 08 3C 00 90 08 35 70 80 09 3C 00 92 29 35 00 00 06 8D 25 38 00 01 05 00 C7 10 00 00 00 00 
02 00 04 34 25 28 08 01 F4 00 00 0C 00 00 00 00 04 00 08 21 F6 FF 09 15 00 00 00 00 70 80 08 3C 
00 92 08 35 70 80 09 3C 00 94 29 35 FC FF 29 21 00 00 29 AD FD FF 09 15 00 00 00 00 70 80 08 3C 
00 92 08 35 70 80 09 3C 00 94 29 35 FC FF 29 21 00 00 26 8D 25 38 20 01 05 00 C7 10 00 00 00 00 
02 00 04 34 25 28 29 01 F4 00 00 0C 00 00 00 00 F6 FF 09 15 00 00 00 00 00 00 BF 8F 04 00 BD 23 
08 00 E0 03 00 00 00 00 00 00 00 00 00 00 00 00 00 00 00 00 00 00 00 00 00 00 00 00 00 00 00 00 
00 00 00 00 00 00 00 00 00 00 00 00 00 00 00 00 00 00 00 00 00 00 00 00 00 00 00 00 00 00 00 00 
00 00 00 00 00 00 00 00 00 00 00 00 00 00 00 00 00 00 00 00 00 00 00 00 00 00 00 00 00 00 00 00 
00 00 00 00 00 00 00 00 00 00 00 00 00 00 00 00 00 00 00 00 00 00 00 00 00 00 00 00 00 00 00 00 
00 00 00 00 00 00 00 00 00 00 00 00 00 00 00 00 00 00 00 00 00 00 00 00 00 00 00 00 00 00 00 00 
00 00 00 00 00 00 00 00 00 00 00 00 00 00 00 00 00 00 00 00 00 00 00 00 00 00 00 00 00 00 00 00 
00 00 00 00 00 00 00 00 00 00 00 00 00 00 00 00 00 00 00 00 00 00 00 00 00 00 00 00 00 00 00 00 
00 00 00 00 00 00 00 00 00 00 00 00 00 00 00 00 00 00 00 00 00 00 00 00 00 00 00 00 00 00 00 00 
00 00 00 00 00 00 00 00 00 00 00 00 00 00 00 00 00 00 00 00 00 00 00 00 00 00 00 00 00 00 00 00 
00 00 00 00 00 00 00 00 00 00 00 00 00 00 00 00 00 00 00 00 00 00 00 00 00 00 00 00 00 00 00 00 
00 00 00 00 00 00 00 00 00 00 00 00 00 00 00 00 00 00 00 00 00 00 00 00 00 00 00 00 00 00 00 00 
00 00 00 00 00 00 00 00 00 00 00 00 00 00 00 00 00 00 00 00 00 00 00 00 00 00 00 00 00 00 00 00 
00 00 00 00 00 00 00 00 00 00 00 00 00 00 00 00 00 00 00 00 00 00 00 00 00 00 00 00 00 00 00 00 
00 00 00 00 00 00 00 00 00 00 00 00 00 00 00 00 00 00 00 00 00 00 00 00 00 00 00 00 00 00 00 00 
00 00 00 00 00 00 00 00 00 00 00 00 00 00 00 00 00 00 00 00 00 00 00 00 00 00 00 00 00 00 00 00 
00 00 00 00 00 00 00 00 00 00 00 00 00 00 00 00 00 00 00 00 00 00 00 00 00 00 00 00 00 00 00 00 
00 00 00 00 00 00 00 00 00 00 00 00 00 00 00 00 00 00 00 00 00 00 00 00 00 00 00 00 00 00 00 00 
00 00 00 00 00 00 00 00 00 00 00 00 00 00 00 00 00 00 00 00 00 00 00 00 00 00 00 00 00 00 00 00 
00 00 00 00 00 00 00 00 00 00 00 00 00 00 00 00 00 00 00 00 00 00 00 00 00 00 00 00 00 00 00 00 
00 00 00 00 00 00 00 00 00 00 00 00 00 00 00 00 00 00 00 00 00 00 00 00 00 00 00 00 00 00 00 00 
00 00 00 00 00 00 00 00 00 00 00 00 00 00 00 00 00 00 00 00 00 00 00 00 00 00 00 00 00 00 00 00 
00 00 00 00 00 00 00 00 00 00 00 00 00 00 00 00 00 00 00 00 00 00 00 00 00 00 00 00 00 00 00 00 
00 00 00 00 00 00 00 00 00 00 00 00 00 00 00 00 00 00 00 00 00 00 00 00 00 00 00 00 00 00 00 00 
00 00 00 00 00 00 00 00 00 00 00 00 00 00 00 00 00 00 00 00 00 00 00 00 00 00 00 00 00 00 00 00 
00 00 00 00 00 00 00 00 00 00 00 00 00 00 00 00 00 00 00 00 00 00 00 00 00 00 00 00 00 00 00 00 
00 00 00 00 00 00 00 00 00 00 00 00 00 00 00 00 00 00 00 00 00 00 00 00 00 00 00 00 00 00 00 00 
00 00 00 00 00 00 00 00 00 00 00 00 00 00 00 00 00 00 00 00 00 00 00 00 00 00 00 00 00 00 00 00 
00 00 00 00 00 00 00 00 00 00 00 00 00 00 00 00 00 00 00 00 00 00 00 00 00 00 00 00 00 00 00 00 
00 00 00 00 00 00 00 00 00 00 00 00 00 00 00 00 00 00 00 00 00 00 00 00 00 00 00 00 00 00 00 00 
00 00 00 00 00 00 00 00 00 00 00 00 00 00 00 00 00 00 00 00 00 00 00 00 00 00 00 00 00 00 00 00 
00 00 00 00 00 00 00 00 00 00 00 00 00 00 00 00 00 00 00 00 00 00 00 00 00 00 00 00 00 00 00 00 
00 00 00 00 00 00 00 00 00 00 00 00 00 00 00 00 00 00 00 00 00 00 00 00 00 00 00 00 00 00 00 00 
00 00 00 00 00 00 00 00 00 00 00 00 00 00 00 00 00 00 00 00 00 00 00 00 00 00 00 00 00 00 00 00 
00 00 00 00 00 00 00 00 00 00 00 00 00 00 00 00 00 00 00 00 00 00 00 00 00 00 00 00 00 00 00 00 
00 00 00 00 00 00 00 00 00 00 00 00 00 00 00 00 00 00 00 00 00 00 00 00 00 00 00 00 00 00 00 00 
00 00 00 00 00 00 00 00 00 00 00 00 00 00 00 00 00 00 00 00 00 00 00 00 00 00 00 00 00 00 00 00 
00 00 00 00 00 00 00 00 00 00 00 00 00 00 00 00 00 00 00 00 00 00 00 00 00 00 00 00 00 00 00 00 
00 00 00 00 00 00 00 00 00 00 00 00 00 00 00 00 00 00 00 00 00 00 00 00 00 00 00 00 00 00 00 00 
00 00 00 00 00 00 00 00 00 00 00 00 00 00 00 00 00 00 00 00 00 00 00 00 00 00 00 00 00 00 00 00 
00 00 00 00 00 00 00 00 00 00 00 00 00 00 00 00 00 00 00 00 00 00 00 00 00 00 00 00 00 00 00 00 
00 00 00 00 00 00 00 00 00 00 00 00 00 00 00 00 00 00 00 00 00 00 00 00 00 00 00 00 00 00 00 00 
00 00 00 00 00 00 00 00 00 00 00 00 00 00 00 00 00 00 00 00 00 00 00 00 00 00 00 00 00 00 00 00 
00 00 00 00 00 00 00 00 00 00 00 00 00 00 00 00 00 00 00 00 00 00 00 00 00 00 00 00 00 00 00 00 
00 00 00 00 00 00 00 00 00 00 00 00 00 00 00 00 00 00 00 00 00 00 00 00 00 00 00 00 00 00 00 00 
00 00 00 00 00 00 00 00 00 00 00 00 00 00 00 00 00 00 00 00 00 00 00 00 00 00 00 00 00 00 00 00 
00 00 00 00 00 00 00 00 00 00 00 00 00 00 00 00 00 00 00 00 00 00 00 00 00 00 00 00 00 00 00 00 
00 00 00 00 00 00 00 00 00 00 00 00 00 00 00 00 00 00 00 00 00 00 00 00 00 00 00 00 00 00 00 00 
00 00 00 00 00 00 00 00 00 00 00 00 00 00 00 00 00 00 00 00 00 00 00 00 00 00 00 00 00 00 00 00 
00 00 00 00 00 00 00 00 00 00 00 00 00 00 00 00 00 00 00 00 00 00 00 00 00 00 00 00 00 00 00 00 
00 00 00 00 00 00 00 00 00 00 00 00 00 00 00 00 00 00 00 00 00 00 00 00 00 00 00 00 00 00 00 00 
