
$ipc_init call=IpcInit size=32 maxargs=0 roparm=ffffffff nocallback
$ipc_open call=IpcOpen size=32 maxargs=1 roparm=ffffffff nocallback
$ipc_close call=IpcClose size=32 maxargs=1 roparm=ffffffff nocallback
$ipc_accept call=IpcAccept size=32 maxargs=1 roparm=ffffffff nocallback
$ipc_receive call=IpcReceivePli size=32 maxargs=13 roparm=ffffffff nocallback
$ipc_send call=IpcSendPli size=32 maxargs=12 roparm=ffffffff nocallback

$getstr$plusarg call=getstr_plusarg_call size=32 maxargs=100 roparm=0 nocallback
$getnum$plusarg call=getnum_plusarg_call size=32 maxargs=100 roparm=0 nocallback
