***********************************************************************
*                 Nintendo GameCube Network SDK                       *
*                      Head-to-Head Module                            *
*                       November 14, 2002                             *
***********************************************************************

* Table of Contents
(1) Introduction
(2) The NetEngine Module
(3) The DirectEngine Module
(4) Revision History
(5) File List

=======================================================================
(1) Introduction
=======================================================================

The Head-to-Head module is middleware for creating network-enabled
Nintendo GameCube games. It allows a game to be played using two Modem 
Adapters connected over a phone line (head-to-head).

This module is made up of the NetEngine library (network library) and 
the DirectEngine library (modem library).

To use this module, you must install the Network Base Package.

To install this module, first create an appropriate directory (such as 
C:/Dwango/h2h) and then copy the extracted files to the directory. Also, 
set the directory (in the format of C:/Dwango/h2h) for the environment 
variable H2H_ROOT.

=======================================================================
(2) The NetEngine Module
=======================================================================
NetEngine is a network game library that supports operation on 
the internet.

It supports peer-to-peer communication, client server communication, 
synchronized communication, asynchronous communication, and object 
communication.

======================================================================
(3) The DirectEngine Module
======================================================================
The DirectEngine is a library for communication between two modems. 
It includes a post-negotiation chat feature.

=======================================================================
(4) Revision History
=======================================================================
11/14/2002     First release

=======================================================================
(5) File List
=======================================================================
./build/demos/h2hdemo/include/ctrl_bar.h
./build/demos/h2hdemo/makefile
./build/demos/h2hdemo/readme.us.txt
./build/demos/h2hdemo/src/pimpom/pimpom.c
./build/demos/h2hdemo/src/simple/simple.c
./doc/h2h/jp/Head_to_Head/img/2mode.GIF
./doc/h2h/jp/Head_to_Head/img/component.gif
./doc/h2h/jp/Head_to_Head/img/connection.GIF
./doc/h2h/jp/Head_to_Head/img/dwango.png
./doc/h2h/jp/Head_to_Head/img/flowoverview.GIF
./doc/h2h/jp/Head_to_Head/img/internetcomparison.GIF
./doc/h2h/jp/Head_to_Head/img/latency.GIF
./doc/h2h/jp/Head_to_Head/index/about.html
./doc/h2h/jp/Head_to_Head/index/notes.html
./doc/h2h/jp/Head_to_Head/index/structure.html
./doc/h2h/jp/Head_to_Head/index/style.css
./doc/h2h/jp/Head_to_Head/index/update.html
./doc/h2h/jp/Head_to_Head/index/works.html
./doc/h2h/jp/Head_to_Head/index.html
./doc/h2h/jp/Head_to_Head/tutorial/index_tr.html
./doc/h2h/jp/Head_to_Head/tutorial/tr1.html
./doc/h2h/jp/Head_to_Head/tutorial/tr2.html
./doc/h2h/jp/Head_to_Head/tutorial/tr3.html
./doc/h2h/jp/Head_to_Head/tutorial/tr4.html
./doc/h2h/jp/manual_de/img/dwango.png
./doc/h2h/jp/manual_de/index/about.html
./doc/h2h/jp/manual_de/index/index_gc.html
./doc/h2h/jp/manual_de/index/notes_gc.html
./doc/h2h/jp/manual_de/index/structure_gc.html
./doc/h2h/jp/manual_de/index/style.css
./doc/h2h/jp/manual_de/index/update.html
./doc/h2h/jp/manual_de/index/works.html
./doc/h2h/jp/manual_de/reference/de_begingamemode.html
./doc/h2h/jp/manual_de/reference/de_calculatebuffersize.html
./doc/h2h/jp/manual_de/reference/de_connect.html
./doc/h2h/jp/manual_de/reference/de_disconnect.html
./doc/h2h/jp/manual_de/reference/de_endgamemode.html
./doc/h2h/jp/manual_de/reference/de_getstatus.html
./doc/h2h/jp/manual_de/reference/de_getuserinfo.html
./doc/h2h/jp/manual_de/reference/de_index_cb.html
./doc/h2h/jp/manual_de/reference/de_index_func.html
./doc/h2h/jp/manual_de/reference/de_index_ref.html
./doc/h2h/jp/manual_de/reference/de_index_struct.html
./doc/h2h/jp/manual_de/reference/de_index_type.html
./doc/h2h/jp/manual_de/reference/de_initialize.html
./doc/h2h/jp/manual_de/reference/de_ishost.html
./doc/h2h/jp/manual_de/reference/de_joinroom.html
./doc/h2h/jp/manual_de/reference/de_leaveroom.html
./doc/h2h/jp/manual_de/reference/de_ondbgmsg.html
./doc/h2h/jp/manual_de/reference/de_onevent.html
./doc/h2h/jp/manual_de/reference/de_proceed.html
./doc/h2h/jp/manual_de/reference/de_sendchat.html
./doc/h2h/jp/manual_de/reference/de_senddata.html
./doc/h2h/jp/manual_de/reference/de_terminate.html
./doc/h2h/jp/manual_de/reference/de_updatesharememory.html
./doc/h2h/jp/manual_de/reference/de_waitconnect.html
./doc/h2h/jp/manual_de/reference/style.css
./doc/h2h/jp/manual_de/reference/_de_begin_type.html
./doc/h2h/jp/manual_de/reference/_de_connect.html
./doc/h2h/jp/manual_de/reference/_de_connect_type.html
./doc/h2h/jp/manual_de/reference/_de_country_type.html
./doc/h2h/jp/manual_de/reference/_de_dial_type.html
./doc/h2h/jp/manual_de/reference/_de_disconnect_type.html
./doc/h2h/jp/manual_de/reference/_de_end_type.html
./doc/h2h/jp/manual_de/reference/_de_event.html
./doc/h2h/jp/manual_de/reference/_de_event_type.html
./doc/h2h/jp/manual_de/reference/_de_initialize.html
./doc/h2h/jp/manual_de/reference/_de_initialize_type.html
./doc/h2h/jp/manual_de/reference/_de_init_type.html
./doc/h2h/jp/manual_de/reference/_de_join_type.html
./doc/h2h/jp/manual_de/reference/_de_leave_type.html
./doc/h2h/jp/manual_de/reference/_de_mode_type.html
./doc/h2h/jp/manual_de/reference/_de_status_type.html
./doc/h2h/jp/manual_de/reference/_de_user_info.html
./doc/h2h/jp/manual_de/reference/_de_volume_type.html
./doc/h2h/jp/manual_de/tutorial/style.css
./doc/h2h/jp/manual_de/tutorial/t1/t1_index.html
./doc/h2h/jp/manual_de/tutorial/t1/t1_step1.html
./doc/h2h/jp/manual_de/tutorial/t1/t1_step2.html
./doc/h2h/jp/manual_de/tutorial/t1/t1_step3.html
./doc/h2h/jp/manual_de/tutorial/t1/t1_step4.html
./doc/h2h/jp/manual_de/tutorial/t1/t1_step5.html
./doc/h2h/jp/manual_de/tutorial/t1/t1_step6.html
./doc/h2h/jp/manual_de/tutorial/t1/t1_step7.html
./doc/h2h/jp/manual_de/tutorial/t1/t1_step8.html
./doc/h2h/jp/manual_de/tutorial/t2/t2_index.html
./doc/h2h/jp/manual_de/tutorial/t2/t2_step1.html
./doc/h2h/jp/manual_de/tutorial/t2/t2_step2.html
./doc/h2h/jp/manual_de/tutorial/t2/t2_step3.html
./doc/h2h/jp/manual_de/tutorial/t2/t2_step4.html
./doc/h2h/jp/manual_de/tutorial/t2/t2_step5.html
./doc/h2h/jp/manual_de/tutorial/tr_index.html
./doc/h2h/jp/manual_ne/essential/es1_1.html
./doc/h2h/jp/manual_ne/essential/es1_2.html
./doc/h2h/jp/manual_ne/essential/es1_3.html
./doc/h2h/jp/manual_ne/essential/es1_index.html
./doc/h2h/jp/manual_ne/essential/es2_1.html
./doc/h2h/jp/manual_ne/essential/es2_2.html
./doc/h2h/jp/manual_ne/essential/es2_3.html
./doc/h2h/jp/manual_ne/essential/es2_index.html
./doc/h2h/jp/manual_ne/essential/index_de.html
./doc/h2h/jp/manual_ne/essential/style.css
./doc/h2h/jp/manual_ne/img/component.gif
./doc/h2h/jp/manual_ne/img/dwango.png
./doc/h2h/jp/manual_ne/index/h2h_gc.html
./doc/h2h/jp/manual_ne/index/index_gc.html
./doc/h2h/jp/manual_ne/index/netengine_de.html
./doc/h2h/jp/manual_ne/index/notes_gc.html
./doc/h2h/jp/manual_ne/index/style.css
./doc/h2h/jp/manual_ne/index/update.html
./doc/h2h/jp/manual_ne/reference/dwango.png
./doc/h2h/jp/manual_ne/reference/ne_beginstream.html
./doc/h2h/jp/manual_ne/reference/ne_calculatebuffersize.html
./doc/h2h/jp/manual_ne/reference/ne_calculateobjectid.html
./doc/h2h/jp/manual_ne/reference/ne_createobject.html
./doc/h2h/jp/manual_ne/reference/ne_createsession.html
./doc/h2h/jp/manual_ne/reference/ne_deleteobject.html
./doc/h2h/jp/manual_ne/reference/ne_deletesession.html
./doc/h2h/jp/manual_ne/reference/ne_endstream.html
./doc/h2h/jp/manual_ne/reference/ne_eventtostring.html
./doc/h2h/jp/manual_ne/reference/ne_getadministratorid.html
./doc/h2h/jp/manual_ne/reference/ne_getclientinfo.html
./doc/h2h/jp/manual_ne/reference/ne_getclientnum.html
./doc/h2h/jp/manual_ne/reference/ne_getcurrentframe.html
./doc/h2h/jp/manual_ne/reference/ne_gethigherid.html
./doc/h2h/jp/manual_ne/reference/ne_gethigherobjectid.html
./doc/h2h/jp/manual_ne/reference/ne_getobjectownerid.html
./doc/h2h/jp/manual_ne/reference/ne_getobservetargetid.html
./doc/h2h/jp/manual_ne/reference/ne_getownid.html
./doc/h2h/jp/manual_ne/reference/ne_getrecentasyncdata.html
./doc/h2h/jp/manual_ne/reference/ne_getrecentobjectdata.html
./doc/h2h/jp/manual_ne/reference/ne_getshareddata.html
./doc/h2h/jp/manual_ne/reference/ne_getstatus.html
./doc/h2h/jp/manual_ne/reference/ne_index_cb.html
./doc/h2h/jp/manual_ne/reference/ne_index_func_de.html
./doc/h2h/jp/manual_ne/reference/ne_index_ref_de.html
./doc/h2h/jp/manual_ne/reference/ne_index_struct.html
./doc/h2h/jp/manual_ne/reference/ne_index_type.html
./doc/h2h/jp/manual_ne/reference/ne_initialize.html
./doc/h2h/jp/manual_ne/reference/ne_isfilterid.html
./doc/h2h/jp/manual_ne/reference/ne_islocalobjectid.html
./doc/h2h/jp/manual_ne/reference/ne_isserverid.html
./doc/h2h/jp/manual_ne/reference/ne_issetasyncdataenable.html
./doc/h2h/jp/manual_ne/reference/ne_issetobjectdataenable.html
./doc/h2h/jp/manual_ne/reference/ne_issetsyncdataenable.html
./doc/h2h/jp/manual_ne/reference/ne_joinsession.html
./doc/h2h/jp/manual_ne/reference/ne_leavesession.html
./doc/h2h/jp/manual_ne/reference/ne_lockobject.html
./doc/h2h/jp/manual_ne/reference/ne_locksession.html
./doc/h2h/jp/manual_ne/reference/ne_lockshareddata.html
./doc/h2h/jp/manual_ne/reference/ne_ondbgmsg.html
./doc/h2h/jp/manual_ne/reference/ne_onevent.html
./doc/h2h/jp/manual_ne/reference/ne_ongetasyncdata.html
./doc/h2h/jp/manual_ne/reference/ne_ongetcursyncdata.html
./doc/h2h/jp/manual_ne/reference/ne_ongetobjdata.html
./doc/h2h/jp/manual_ne/reference/ne_ongetsyncdata.html
./doc/h2h/jp/manual_ne/reference/ne_onrecvclntmsg.html
./doc/h2h/jp/manual_ne/reference/ne_onrecvobjmsg.html
./doc/h2h/jp/manual_ne/reference/ne_onwarn.html
./doc/h2h/jp/manual_ne/reference/ne_proceed.html
./doc/h2h/jp/manual_ne/reference/ne_sendclientguaranteedmessage.html
./doc/h2h/jp/manual_ne/reference/ne_sendclientmessage.html
./doc/h2h/jp/manual_ne/reference/ne_sendobjectguaranteedmessage.html
./doc/h2h/jp/manual_ne/reference/ne_sendobjectmessage.html
./doc/h2h/jp/manual_ne/reference/ne_setasyncdata.html
./doc/h2h/jp/manual_ne/reference/ne_setcurrentsyncdata.html
./doc/h2h/jp/manual_ne/reference/ne_setobjectdata.html
./doc/h2h/jp/manual_ne/reference/ne_setobservetargetid.html
./doc/h2h/jp/manual_ne/reference/ne_setshareddata.html
./doc/h2h/jp/manual_ne/reference/ne_setsyncdata.html
./doc/h2h/jp/manual_ne/reference/ne_terminate.html
./doc/h2h/jp/manual_ne/reference/ne_unlockobject.html
./doc/h2h/jp/manual_ne/reference/ne_unlocksession.html
./doc/h2h/jp/manual_ne/reference/ne_unlockshareddata.html
./doc/h2h/jp/manual_ne/reference/ne_warningtostring.html
./doc/h2h/jp/manual_ne/reference/style.css
./doc/h2h/jp/manual_ne/reference/_ne_add_type.html
./doc/h2h/jp/manual_ne/reference/_ne_async_option.html
./doc/h2h/jp/manual_ne/reference/_ne_begin_type.html
./doc/h2h/jp/manual_ne/reference/_ne_capture_type.html
./doc/h2h/jp/manual_ne/reference/_ne_client_info.html
./doc/h2h/jp/manual_ne/reference/_ne_create_type.html
./doc/h2h/jp/manual_ne/reference/_ne_delete_type.html
./doc/h2h/jp/manual_ne/reference/_ne_end_type.html
./doc/h2h/jp/manual_ne/reference/_ne_event.html
./doc/h2h/jp/manual_ne/reference/_ne_event_type.html
./doc/h2h/jp/manual_ne/reference/_ne_frame_type.html
./doc/h2h/jp/manual_ne/reference/_ne_get_async_data.html
./doc/h2h/jp/manual_ne/reference/_ne_get_object_data.html
./doc/h2h/jp/manual_ne/reference/_ne_get_sync_data.html
./doc/h2h/jp/manual_ne/reference/_ne_get_type.html
./doc/h2h/jp/manual_ne/reference/_ne_initialize.html
./doc/h2h/jp/manual_ne/reference/_ne_join_type.html
./doc/h2h/jp/manual_ne/reference/_ne_leave_type.html
./doc/h2h/jp/manual_ne/reference/_ne_lock_type.html
./doc/h2h/jp/manual_ne/reference/_ne_object_info.html
./doc/h2h/jp/manual_ne/reference/_ne_object_option.html
./doc/h2h/jp/manual_ne/reference/_ne_protocol_type.html
./doc/h2h/jp/manual_ne/reference/_ne_remove_type.html
./doc/h2h/jp/manual_ne/reference/_ne_session_info.html
./doc/h2h/jp/manual_ne/reference/_ne_session_initialize.html
./doc/h2h/jp/manual_ne/reference/_ne_set_type.html
./doc/h2h/jp/manual_ne/reference/_ne_status_type.html
./doc/h2h/jp/manual_ne/reference/_ne_stream_data_info.html
./doc/h2h/jp/manual_ne/reference/_ne_stream_info.html
./doc/h2h/jp/manual_ne/reference/_ne_stream_initialize.html
./doc/h2h/jp/manual_ne/reference/_ne_stream_type.html
./doc/h2h/jp/manual_ne/reference/_ne_sync_option.html
./doc/h2h/jp/manual_ne/reference/_ne_unlock_type.html
./doc/h2h/jp/manual_ne/reference/_ne_warning_type.html
./doc/h2h/jp/manual_ne/tutorial/style.css
./doc/h2h/jp/manual_ne/tutorial/t1/t1_index.html
./doc/h2h/jp/manual_ne/tutorial/t1/t1_step1.html
./doc/h2h/jp/manual_ne/tutorial/t1/t1_step2.html
./doc/h2h/jp/manual_ne/tutorial/t1/t1_step3.html
./doc/h2h/jp/manual_ne/tutorial/t1/t1_step4.html
./doc/h2h/jp/manual_ne/tutorial/t1/t1_step5.html
./doc/h2h/jp/manual_ne/tutorial/t1/t1_step6.html
./doc/h2h/jp/manual_ne/tutorial/t1/t1_step7.html
./doc/h2h/jp/manual_ne/tutorial/t1/t1_step8.html
./doc/h2h/jp/manual_ne/tutorial/t2/t2_index.html
./doc/h2h/jp/manual_ne/tutorial/t2/t2_step1.html
./doc/h2h/jp/manual_ne/tutorial/t2/t2_step2.html
./doc/h2h/jp/manual_ne/tutorial/t2/t2_step3.html
./doc/h2h/jp/manual_ne/tutorial/t2/t2_step4.html
./doc/h2h/jp/manual_ne/tutorial/t2/t2_step5.html
./doc/h2h/jp/manual_ne/tutorial/t2/t2_step6.html
./doc/h2h/jp/manual_ne/tutorial/t2/t2_step7.html
./doc/h2h/jp/manual_ne/tutorial/t2/t2_step8.html
./doc/h2h/jp/manual_ne/tutorial/t3/t3_index.html
./doc/h2h/jp/manual_ne/tutorial/t3/t3_step1.html
./doc/h2h/jp/manual_ne/tutorial/t3/t3_step10.html
./doc/h2h/jp/manual_ne/tutorial/t3/t3_step2.html
./doc/h2h/jp/manual_ne/tutorial/t3/t3_step3.html
./doc/h2h/jp/manual_ne/tutorial/t3/t3_step4.html
./doc/h2h/jp/manual_ne/tutorial/t3/t3_step5.html
./doc/h2h/jp/manual_ne/tutorial/t3/t3_step6.html
./doc/h2h/jp/manual_ne/tutorial/t3/t3_step7.html
./doc/h2h/jp/manual_ne/tutorial/t3/t3_step8.html
./doc/h2h/jp/manual_ne/tutorial/t3/t3_step9.html
./doc/h2h/jp/manual_ne/tutorial/tr_index_de.html
./doc/h2h/us/Head_to_Head/img/2mode.GIF
./doc/h2h/us/Head_to_Head/img/component.gif
./doc/h2h/us/Head_to_Head/img/connection.GIF
./doc/h2h/us/Head_to_Head/img/dwango.png
./doc/h2h/us/Head_to_Head/img/flowoverview.GIF
./doc/h2h/us/Head_to_Head/img/internetcomparison.GIF
./doc/h2h/us/Head_to_Head/img/latency.GIF
./doc/h2h/us/Head_to_Head/index/about.html
./doc/h2h/us/Head_to_Head/index/notes.html
./doc/h2h/us/Head_to_Head/index/structure.html
./doc/h2h/us/Head_to_Head/index/style.css
./doc/h2h/us/Head_to_Head/index/update.html
./doc/h2h/us/Head_to_Head/index/works.html
./doc/h2h/us/Head_to_Head/index.html
./doc/h2h/us/Head_to_Head/tutorial/index_tr.html
./doc/h2h/us/Head_to_Head/tutorial/tr1.html
./doc/h2h/us/Head_to_Head/tutorial/tr2.html
./doc/h2h/us/Head_to_Head/tutorial/tr3.html
./doc/h2h/us/Head_to_Head/tutorial/tr4.html
./doc/h2h/us/manual_de/img/dwango.png
./doc/h2h/us/manual_de/index/about.html
./doc/h2h/us/manual_de/index/index_gc.html
./doc/h2h/us/manual_de/index/notes_gc.html
./doc/h2h/us/manual_de/index/structure_gc.html
./doc/h2h/us/manual_de/index/style.css
./doc/h2h/us/manual_de/index/update.html
./doc/h2h/us/manual_de/index/works.html
./doc/h2h/us/manual_de/reference/de_begingamemode.html
./doc/h2h/us/manual_de/reference/de_calculatebuffersize.html
./doc/h2h/us/manual_de/reference/de_connect.html
./doc/h2h/us/manual_de/reference/de_disconnect.html
./doc/h2h/us/manual_de/reference/de_endgamemode.html
./doc/h2h/us/manual_de/reference/de_getstatus.html
./doc/h2h/us/manual_de/reference/de_getuserinfo.html
./doc/h2h/us/manual_de/reference/de_index_cb.html
./doc/h2h/us/manual_de/reference/de_index_func.html
./doc/h2h/us/manual_de/reference/de_index_ref.html
./doc/h2h/us/manual_de/reference/de_index_struct.html
./doc/h2h/us/manual_de/reference/de_index_type.html
./doc/h2h/us/manual_de/reference/de_initialize.html
./doc/h2h/us/manual_de/reference/de_ishost.html
./doc/h2h/us/manual_de/reference/de_joinroom.html
./doc/h2h/us/manual_de/reference/de_leaveroom.html
./doc/h2h/us/manual_de/reference/de_ondbgmsg.html
./doc/h2h/us/manual_de/reference/de_onevent.html
./doc/h2h/us/manual_de/reference/de_proceed.html
./doc/h2h/us/manual_de/reference/de_sendchat.html
./doc/h2h/us/manual_de/reference/de_senddata.html
./doc/h2h/us/manual_de/reference/de_terminate.html
./doc/h2h/us/manual_de/reference/de_updatesharememory.html
./doc/h2h/us/manual_de/reference/de_waitconnect.html
./doc/h2h/us/manual_de/reference/style.css
./doc/h2h/us/manual_de/reference/_de_begin_type.html
./doc/h2h/us/manual_de/reference/_de_connect.html
./doc/h2h/us/manual_de/reference/_de_connect_type.html
./doc/h2h/us/manual_de/reference/_de_country_type.html
./doc/h2h/us/manual_de/reference/_de_dial_type.html
./doc/h2h/us/manual_de/reference/_de_disconnect_type.html
./doc/h2h/us/manual_de/reference/_de_end_type.html
./doc/h2h/us/manual_de/reference/_de_event.html
./doc/h2h/us/manual_de/reference/_de_event_type.html
./doc/h2h/us/manual_de/reference/_de_initialize.html
./doc/h2h/us/manual_de/reference/_de_initialize_type.html
./doc/h2h/us/manual_de/reference/_de_init_type.html
./doc/h2h/us/manual_de/reference/_de_join_type.html
./doc/h2h/us/manual_de/reference/_de_leave_type.html
./doc/h2h/us/manual_de/reference/_de_mode_type.html
./doc/h2h/us/manual_de/reference/_de_status_type.html
./doc/h2h/us/manual_de/reference/_de_user_info.html
./doc/h2h/us/manual_de/reference/_de_volume_type.html
./doc/h2h/us/manual_de/tutorial/style.css
./doc/h2h/us/manual_de/tutorial/t1/t1_index.html
./doc/h2h/us/manual_de/tutorial/t1/t1_step1.html
./doc/h2h/us/manual_de/tutorial/t1/t1_step2.html
./doc/h2h/us/manual_de/tutorial/t1/t1_step3.html
./doc/h2h/us/manual_de/tutorial/t1/t1_step4.html
./doc/h2h/us/manual_de/tutorial/t1/t1_step5.html
./doc/h2h/us/manual_de/tutorial/t1/t1_step6.html
./doc/h2h/us/manual_de/tutorial/t1/t1_step7.html
./doc/h2h/us/manual_de/tutorial/t1/t1_step8.html
./doc/h2h/us/manual_de/tutorial/t2/t2_index.html
./doc/h2h/us/manual_de/tutorial/t2/t2_step1.html
./doc/h2h/us/manual_de/tutorial/t2/t2_step2.html
./doc/h2h/us/manual_de/tutorial/t2/t2_step3.html
./doc/h2h/us/manual_de/tutorial/t2/t2_step4.html
./doc/h2h/us/manual_de/tutorial/t2/t2_step5.html
./doc/h2h/us/manual_de/tutorial/tr_index.html
./doc/h2h/us/manual_ne/essential/es1_1.html
./doc/h2h/us/manual_ne/essential/es1_2.html
./doc/h2h/us/manual_ne/essential/es1_3.html
./doc/h2h/us/manual_ne/essential/es1_index.html
./doc/h2h/us/manual_ne/essential/es2_1.html
./doc/h2h/us/manual_ne/essential/es2_2.html
./doc/h2h/us/manual_ne/essential/es2_3.html
./doc/h2h/us/manual_ne/essential/es2_index.html
./doc/h2h/us/manual_ne/essential/index_de.html
./doc/h2h/us/manual_ne/essential/style.css
./doc/h2h/us/manual_ne/img/component.gif
./doc/h2h/us/manual_ne/img/dwango.png
./doc/h2h/us/manual_ne/index/h2h_gc.html
./doc/h2h/us/manual_ne/index/index_gc.html
./doc/h2h/us/manual_ne/index/netengine_de.html
./doc/h2h/us/manual_ne/index/notes_gc.html
./doc/h2h/us/manual_ne/index/style.css
./doc/h2h/us/manual_ne/index/update.html
./doc/h2h/us/manual_ne/reference/ne_beginstream.html
./doc/h2h/us/manual_ne/reference/ne_calculatebuffersize.html
./doc/h2h/us/manual_ne/reference/ne_calculateobjectid.html
./doc/h2h/us/manual_ne/reference/ne_createobject.html
./doc/h2h/us/manual_ne/reference/ne_createsession.html
./doc/h2h/us/manual_ne/reference/ne_deleteobject.html
./doc/h2h/us/manual_ne/reference/ne_deletesession.html
./doc/h2h/us/manual_ne/reference/ne_endstream.html
./doc/h2h/us/manual_ne/reference/ne_eventtostring.html
./doc/h2h/us/manual_ne/reference/ne_getadministratorid.html
./doc/h2h/us/manual_ne/reference/ne_getclientinfo.html
./doc/h2h/us/manual_ne/reference/ne_getclientnum.html
./doc/h2h/us/manual_ne/reference/ne_getcurrentframe.html
./doc/h2h/us/manual_ne/reference/ne_gethigherid.html
./doc/h2h/us/manual_ne/reference/ne_gethigherobjectid.html
./doc/h2h/us/manual_ne/reference/ne_getobjectownerid.html
./doc/h2h/us/manual_ne/reference/ne_getobservetargetid.html
./doc/h2h/us/manual_ne/reference/ne_getownid.html
./doc/h2h/us/manual_ne/reference/ne_getrecentasyncdata.html
./doc/h2h/us/manual_ne/reference/ne_getrecentobjectdata.html
./doc/h2h/us/manual_ne/reference/ne_getshareddata.html
./doc/h2h/us/manual_ne/reference/ne_getstatus.html
./doc/h2h/us/manual_ne/reference/ne_index_cb.html
./doc/h2h/us/manual_ne/reference/ne_index_func_de.html
./doc/h2h/us/manual_ne/reference/ne_index_ref_de.html
./doc/h2h/us/manual_ne/reference/ne_index_struct.html
./doc/h2h/us/manual_ne/reference/ne_index_type.html
./doc/h2h/us/manual_ne/reference/ne_initialize.html
./doc/h2h/us/manual_ne/reference/ne_isfilterid.html
./doc/h2h/us/manual_ne/reference/ne_islocalobjectid.html
./doc/h2h/us/manual_ne/reference/ne_isserverid.html
./doc/h2h/us/manual_ne/reference/ne_issetasyncdataenable.html
./doc/h2h/us/manual_ne/reference/ne_issetobjectdataenable.html
./doc/h2h/us/manual_ne/reference/ne_issetsyncdataenable.html
./doc/h2h/us/manual_ne/reference/ne_joinsession.html
./doc/h2h/us/manual_ne/reference/ne_leavesession.html
./doc/h2h/us/manual_ne/reference/ne_lockobject.html
./doc/h2h/us/manual_ne/reference/ne_locksession.html
./doc/h2h/us/manual_ne/reference/ne_lockshareddata.html
./doc/h2h/us/manual_ne/reference/ne_ondbgmsg.html
./doc/h2h/us/manual_ne/reference/ne_onevent.html
./doc/h2h/us/manual_ne/reference/ne_ongetasyncdata.html
./doc/h2h/us/manual_ne/reference/ne_ongetcursyncdata.html
./doc/h2h/us/manual_ne/reference/ne_ongetobjdata.html
./doc/h2h/us/manual_ne/reference/ne_ongetsyncdata.html
./doc/h2h/us/manual_ne/reference/ne_onrecvclntmsg.html
./doc/h2h/us/manual_ne/reference/ne_onrecvobjmsg.html
./doc/h2h/us/manual_ne/reference/ne_onwarn.html
./doc/h2h/us/manual_ne/reference/ne_proceed.html
./doc/h2h/us/manual_ne/reference/ne_sendclientguaranteedmessage.html
./doc/h2h/us/manual_ne/reference/ne_sendclientmessage.html
./doc/h2h/us/manual_ne/reference/ne_sendobjectguaranteedmessage.html
./doc/h2h/us/manual_ne/reference/ne_sendobjectmessage.html
./doc/h2h/us/manual_ne/reference/ne_setasyncdata.html
./doc/h2h/us/manual_ne/reference/ne_setcurrentsyncdata.html
./doc/h2h/us/manual_ne/reference/ne_setobjectdata.html
./doc/h2h/us/manual_ne/reference/ne_setobservetargetid.html
./doc/h2h/us/manual_ne/reference/ne_setshareddata.html
./doc/h2h/us/manual_ne/reference/ne_setsyncdata.html
./doc/h2h/us/manual_ne/reference/ne_terminate.html
./doc/h2h/us/manual_ne/reference/ne_unlockobject.html
./doc/h2h/us/manual_ne/reference/ne_unlocksession.html
./doc/h2h/us/manual_ne/reference/ne_unlockshareddata.html
./doc/h2h/us/manual_ne/reference/ne_warningtostring.html
./doc/h2h/us/manual_ne/reference/style.css
./doc/h2h/us/manual_ne/reference/_ne_add_type.html
./doc/h2h/us/manual_ne/reference/_ne_async_option.html
./doc/h2h/us/manual_ne/reference/_ne_begin_type.html
./doc/h2h/us/manual_ne/reference/_ne_capture_type.html
./doc/h2h/us/manual_ne/reference/_ne_client_info.html
./doc/h2h/us/manual_ne/reference/_ne_create_type.html
./doc/h2h/us/manual_ne/reference/_ne_delete_type.html
./doc/h2h/us/manual_ne/reference/_ne_end_type.html
./doc/h2h/us/manual_ne/reference/_ne_event.html
./doc/h2h/us/manual_ne/reference/_ne_event_type.html
./doc/h2h/us/manual_ne/reference/_ne_frame_type.html
./doc/h2h/us/manual_ne/reference/_ne_get_async_data.html
./doc/h2h/us/manual_ne/reference/_ne_get_object_data.html
./doc/h2h/us/manual_ne/reference/_ne_get_sync_data.html
./doc/h2h/us/manual_ne/reference/_ne_get_type.html
./doc/h2h/us/manual_ne/reference/_ne_initialize.html
./doc/h2h/us/manual_ne/reference/_ne_join_type.html
./doc/h2h/us/manual_ne/reference/_ne_leave_type.html
./doc/h2h/us/manual_ne/reference/_ne_lock_type.html
./doc/h2h/us/manual_ne/reference/_ne_object_info.html
./doc/h2h/us/manual_ne/reference/_ne_object_option.html
./doc/h2h/us/manual_ne/reference/_ne_protocol_type.html
./doc/h2h/us/manual_ne/reference/_ne_remove_type.html
./doc/h2h/us/manual_ne/reference/_ne_session_info.html
./doc/h2h/us/manual_ne/reference/_ne_session_initialize.html
./doc/h2h/us/manual_ne/reference/_ne_set_type.html
./doc/h2h/us/manual_ne/reference/_ne_status_type.html
./doc/h2h/us/manual_ne/reference/_ne_stream_data_info.html
./doc/h2h/us/manual_ne/reference/_ne_stream_info.html
./doc/h2h/us/manual_ne/reference/_ne_stream_initialize.html
./doc/h2h/us/manual_ne/reference/_ne_stream_type.html
./doc/h2h/us/manual_ne/reference/_ne_sync_option.html
./doc/h2h/us/manual_ne/reference/_ne_unlock_type.html
./doc/h2h/us/manual_ne/reference/_ne_warning_type.html
./doc/h2h/us/manual_ne/tutorial/style.css
./doc/h2h/us/manual_ne/tutorial/t1/t1_index.html
./doc/h2h/us/manual_ne/tutorial/t1/t1_step1.html
./doc/h2h/us/manual_ne/tutorial/t1/t1_step2.html
./doc/h2h/us/manual_ne/tutorial/t1/t1_step3.html
./doc/h2h/us/manual_ne/tutorial/t1/t1_step4.html
./doc/h2h/us/manual_ne/tutorial/t1/t1_step5.html
./doc/h2h/us/manual_ne/tutorial/t1/t1_step6.html
./doc/h2h/us/manual_ne/tutorial/t1/t1_step7.html
./doc/h2h/us/manual_ne/tutorial/t1/t1_step8.html
./doc/h2h/us/manual_ne/tutorial/t2/t2_index.html
./doc/h2h/us/manual_ne/tutorial/t2/t2_step1.html
./doc/h2h/us/manual_ne/tutorial/t2/t2_step2.html
./doc/h2h/us/manual_ne/tutorial/t2/t2_step3.html
./doc/h2h/us/manual_ne/tutorial/t2/t2_step4.html
./doc/h2h/us/manual_ne/tutorial/t2/t2_step5.html
./doc/h2h/us/manual_ne/tutorial/t2/t2_step6.html
./doc/h2h/us/manual_ne/tutorial/t2/t2_step7.html
./doc/h2h/us/manual_ne/tutorial/t2/t2_step8.html
./doc/h2h/us/manual_ne/tutorial/t3/t3_index.html
./doc/h2h/us/manual_ne/tutorial/t3/t3_step1.html
./doc/h2h/us/manual_ne/tutorial/t3/t3_step10.html
./doc/h2h/us/manual_ne/tutorial/t3/t3_step2.html
./doc/h2h/us/manual_ne/tutorial/t3/t3_step3.html
./doc/h2h/us/manual_ne/tutorial/t3/t3_step4.html
./doc/h2h/us/manual_ne/tutorial/t3/t3_step5.html
./doc/h2h/us/manual_ne/tutorial/t3/t3_step6.html
./doc/h2h/us/manual_ne/tutorial/t3/t3_step7.html
./doc/h2h/us/manual_ne/tutorial/t3/t3_step8.html
./doc/h2h/us/manual_ne/tutorial/t3/t3_step9.html
./doc/h2h/us/manual_ne/tutorial/tr_index_de.html
./HW2/lib/directengine.a
./HW2/lib/directengineC.a
./HW2/lib/directengineD.a
./HW2/lib/netengine_de.a
./HW2/lib/netengine_deC.a
./HW2/lib/netengine_deD.a
./include/dolphin/h2h/directengine.h
./include/dolphin/h2h/dw_types.h
./include/dolphin/h2h/netengine.h

=======================================================================
If you have any technical questions concerning the Network SDK, post on
the SDSG news groups (news.sdsg.nintendo.com) or contact us directly at
support@noa.com.
=======================================================================

